CorrelationId: 84dfa240-d6de-4682-86dc-cec3559a9487
UTC DateTime: 3/23/2020 11:11:20 AM

The following files/folders have not been downloaded
1. ???????/04/??????? ?????/????branch 3.5.ex
2. ???????/04/??????? ?????/????branch 3.6.ex
